%YAML 1.1
%TAG !u! tag:unity3d.com,2011:
--- !u!74 &7400000
AnimationClip:
  m_ObjectHideFlags: 0
  m_CorrespondingSourceObject: {fileID: 0}
  m_PrefabInstance: {fileID: 0}
  m_PrefabAsset: {fileID: 0}
  m_Name: LoadingLoop
  serializedVersion: 6
  m_Legacy: 0
  m_Compressed: 0
  m_UseHighQualityCurve: 1
  m_RotationCurves: []
  m_CompressedRotationCurves: []
  m_EulerCurves: []
  m_PositionCurves: []
  m_ScaleCurves:
  - curve:
      serializedVersion: 2
      m_Curve:
      - serializedVersion: 3
        time: 0
        value: {x: 1, y: 1, z: 1}
        inSlope: {x: 0, y: 0, z: 0}
        outSlope: {x: 0, y: 0, z: 0}
        tangentMode: 0
        weightedMode: 0
        inWeight: {x: 0, y: 0.33333334, z: 0.33333334}
        outWeight: {x: 0, y: 0.33333334, z: 0.33333334}
      m_PreInfinity: 2
      m_PostInfinity: 2
      m_RotationOrder: 4
    path: Scaler/ClapLoopImg
  m_FloatCurves:
  - curve:
      serializedVersion: 2
      m_Curve:
      - serializedVersion: 3
        time: 0
        value: 1
        inSlope: 0
        outSlope: 0
        tangentMode: 136
        weightedMode: 0
        inWeight: 0
        outWeight: 0
      m_PreInfinity: 2
      m_PostInfinity: 2
      m_RotationOrder: 4
    attribute: m_Alpha
    path: Background
    classID: 225
    script: {fileID: 0}
  m_PPtrCurves:
  - curve:
    - time: 0
      value: {fileID: 21300000, guid: 76ff0ec049941fc4c81b7e60e589ed8a, type: 3}
    - time: 0.041666668
      value: {fileID: 21300000, guid: 9dbe32114100b8c4b8a8578125fd009c, type: 3}
    - time: 0.083333336
      value: {fileID: 21300000, guid: 9fe7ff33a90bdd84a9caff35029836ec, type: 3}
    - time: 0.125
      value: {fileID: 21300000, guid: 7866c448fbf8de24b94fcf47e7342f99, type: 3}
    - time: 0.16666667
      value: {fileID: 21300000, guid: b8e81bd6bdc97ac43ae152374f0b31b3, type: 3}
    - time: 0.20833333
      value: {fileID: 21300000, guid: 7dba431ebbe42454ea66093296a3124b, type: 3}
    - time: 0.25
      value: {fileID: 21300000, guid: ff4f2b365dc9dfd46a5d499a669708c7, type: 3}
    - time: 0.29166666
      value: {fileID: 21300000, guid: 5b4442ffefbd9ed4eb4737af41a85205, type: 3}
    - time: 0.33333334
      value: {fileID: 21300000, guid: 5cf2324d00cf3a14eac8ced796df8b65, type: 3}
    - time: 0.375
      value: {fileID: 21300000, guid: 98e152e784a8bf04385be2ce98d1d033, type: 3}
    - time: 0.41666666
      value: {fileID: 21300000, guid: e2b7d2715a9e94440b94f64000123087, type: 3}
    - time: 0.45833334
      value: {fileID: 21300000, guid: 140521a50f56f2e46a3f68e09f544d67, type: 3}
    - time: 0.5
      value: {fileID: 21300000, guid: 4ca4e49571b87d047b5c71d7962c3c01, type: 3}
    - time: 0.5416667
      value: {fileID: 21300000, guid: f32dcdda863a49f44a8c394270d94dc0, type: 3}
    - time: 0.5833333
      value: {fileID: 21300000, guid: 766e058f937e31547ae419726f361a72, type: 3}
    - time: 0.625
      value: {fileID: 21300000, guid: 447a9d1c3f7207647bd2c8814f84a4f7, type: 3}
    - time: 0.6666667
      value: {fileID: 21300000, guid: 8677aca6be6e8024d908c7b419739c11, type: 3}
    - time: 0.7083333
      value: {fileID: 21300000, guid: 55217c0b0a078564f943fd4fa91e49c4, type: 3}
    - time: 0.75
      value: {fileID: 21300000, guid: 056b8fb03d7cfc64c9c221fd35eef5a7, type: 3}
    - time: 0.7916667
      value: {fileID: 21300000, guid: e053a663cfafe9948ad908f31d796ebb, type: 3}
    - time: 0.8333333
      value: {fileID: 21300000, guid: 1c90b7caca45a5a49b7bf516c30a2dbe, type: 3}
    - time: 0.875
      value: {fileID: 21300000, guid: 0503abc566973b34a8e6f596fe17dede, type: 3}
    - time: 0.9166667
      value: {fileID: 21300000, guid: 44f983161b6bb044ca5027d7f47c65ce, type: 3}
    attribute: m_Sprite
    path: Scaler/ClapLoopImg
    classID: 114
    script: {fileID: 11500000, guid: fe87c0e1cc204ed48ad3b37840f39efc, type: 3}
  m_SampleRate: 24
  m_WrapMode: 0
  m_Bounds:
    m_Center: {x: 0, y: 0, z: 0}
    m_Extent: {x: 0, y: 0, z: 0}
  m_ClipBindingConstant:
    genericBindings:
    - serializedVersion: 2
      path: 83788917
      attribute: 2015549526
      script: {fileID: 11500000, guid: fe87c0e1cc204ed48ad3b37840f39efc, type: 3}
      typeID: 114
      customType: 0
      isPPtrCurve: 1
    - serializedVersion: 2
      path: 83788917
      attribute: 3
      script: {fileID: 0}
      typeID: 4
      customType: 0
      isPPtrCurve: 0
    - serializedVersion: 2
      path: 4080383872
      attribute: 1574349066
      script: {fileID: 0}
      typeID: 225
      customType: 0
      isPPtrCurve: 0
    pptrCurveMapping:
    - {fileID: 21300000, guid: 76ff0ec049941fc4c81b7e60e589ed8a, type: 3}
    - {fileID: 21300000, guid: 9dbe32114100b8c4b8a8578125fd009c, type: 3}
    - {fileID: 21300000, guid: 9fe7ff33a90bdd84a9caff35029836ec, type: 3}
    - {fileID: 21300000, guid: 7866c448fbf8de24b94fcf47e7342f99, type: 3}
    - {fileID: 21300000, guid: b8e81bd6bdc97ac43ae152374f0b31b3, type: 3}
    - {fileID: 21300000, guid: 7dba431ebbe42454ea66093296a3124b, type: 3}
    - {fileID: 21300000, guid: ff4f2b365dc9dfd46a5d499a669708c7, type: 3}
    - {fileID: 21300000, guid: 5b4442ffefbd9ed4eb4737af41a85205, type: 3}
    - {fileID: 21300000, guid: 5cf2324d00cf3a14eac8ced796df8b65, type: 3}
    - {fileID: 21300000, guid: 98e152e784a8bf04385be2ce98d1d033, type: 3}
    - {fileID: 21300000, guid: e2b7d2715a9e94440b94f64000123087, type: 3}
    - {fileID: 21300000, guid: 140521a50f56f2e46a3f68e09f544d67, type: 3}
    - {fileID: 21300000, guid: 4ca4e49571b87d047b5c71d7962c3c01, type: 3}
    - {fileID: 21300000, guid: f32dcdda863a49f44a8c394270d94dc0, type: 3}
    - {fileID: 21300000, guid: 766e058f937e31547ae419726f361a72, type: 3}
    - {fileID: 21300000, guid: 447a9d1c3f7207647bd2c8814f84a4f7, type: 3}
    - {fileID: 21300000, guid: 8677aca6be6e8024d908c7b419739c11, type: 3}
    - {fileID: 21300000, guid: 55217c0b0a078564f943fd4fa91e49c4, type: 3}
    - {fileID: 21300000, guid: 056b8fb03d7cfc64c9c221fd35eef5a7, type: 3}
    - {fileID: 21300000, guid: e053a663cfafe9948ad908f31d796ebb, type: 3}
    - {fileID: 21300000, guid: 1c90b7caca45a5a49b7bf516c30a2dbe, type: 3}
    - {fileID: 21300000, guid: 0503abc566973b34a8e6f596fe17dede, type: 3}
    - {fileID: 21300000, guid: 44f983161b6bb044ca5027d7f47c65ce, type: 3}
  m_AnimationClipSettings:
    serializedVersion: 2
    m_AdditiveReferencePoseClip: {fileID: 0}
    m_AdditiveReferencePoseTime: 0
    m_StartTime: 0
    m_StopTime: 0.9583334
    m_OrientationOffsetY: 0
    m_Level: 0
    m_CycleOffset: 0
    m_HasAdditiveReferencePose: 0
    m_LoopTime: 1
    m_LoopBlend: 0
    m_LoopBlendOrientation: 0
    m_LoopBlendPositionY: 0
    m_LoopBlendPositionXZ: 0
    m_KeepOriginalOrientation: 0
    m_KeepOriginalPositionY: 1
    m_KeepOriginalPositionXZ: 0
    m_HeightFromFeet: 0
    m_Mirror: 0
  m_EditorCurves:
  - curve:
      serializedVersion: 2
      m_Curve:
      - serializedVersion: 3
        time: 0
        value: 1
        inSlope: 0
        outSlope: 0
        tangentMode: 136
        weightedMode: 0
        inWeight: 0
        outWeight: 0
      m_PreInfinity: 2
      m_PostInfinity: 2
      m_RotationOrder: 4
    attribute: m_LocalScale.x
    path: Scaler/ClapLoopImg
    classID: 224
    script: {fileID: 0}
  - curve:
      serializedVersion: 2
      m_Curve:
      - serializedVersion: 3
        time: 0
        value: 1
        inSlope: 0
        outSlope: 0
        tangentMode: 136
        weightedMode: 0
        inWeight: 0
        outWeight: 0
      m_PreInfinity: 2
      m_PostInfinity: 2
      m_RotationOrder: 4
    attribute: m_LocalScale.y
    path: Scaler/ClapLoopImg
    classID: 224
    script: {fileID: 0}
  - curve:
      serializedVersion: 2
      m_Curve:
      - serializedVersion: 3
        time: 0
        value: 1
        inSlope: 0
        outSlope: 0
        tangentMode: 136
        weightedMode: 0
        inWeight: 0
        outWeight: 0
      m_PreInfinity: 2
      m_PostInfinity: 2
      m_RotationOrder: 4
    attribute: m_LocalScale.z
    path: Scaler/ClapLoopImg
    classID: 224
    script: {fileID: 0}
  - curve:
      serializedVersion: 2
      m_Curve:
      - serializedVersion: 3
        time: 0
        value: 1
        inSlope: 0
        outSlope: 0
        tangentMode: 136
        weightedMode: 0
        inWeight: 0
        outWeight: 0
      m_PreInfinity: 2
      m_PostInfinity: 2
      m_RotationOrder: 4
    attribute: m_Alpha
    path: Background
    classID: 225
    script: {fileID: 0}
  m_EulerEditorCurves: []
  m_HasGenericRootTransform: 0
  m_HasMotionFloatCurves: 0
  m_Events:
  - time: 0
    functionName: LoopAnimationFinishedFalse
    data: 
    objectReferenceParameter: {fileID: 0}
    floatParameter: 0
    intParameter: 0
    messageOptions: 0
  - time: 0.9166667
    functionName: LoopAnimationFinishedTrue
    data: 
    objectReferenceParameter: {fileID: 0}
    floatParameter: 0
    intParameter: 0
    messageOptions: 0
