%YAML 1.1
%TAG !u! tag:unity3d.com,2011:
--- !u!78 &1
TagManager:
  serializedVersion: 2
  tags: []
  layers:
  - Default
  - TransparentFX
  - Ignore Raycast
  - Minimap
  - Water
  - UI
  - 
  - 
  - 
  - 
  - 
  - 
  - 
  - 
  - 
  - 
  - 
  - 
  - 
  - 
  - 
  - 
  - 
  - 
  - 
  - 
  - 
  - 
  - 
  - 
  - 
  - 
  m_SortingLayers:
  - name: Background
    uniqueID: 3126596469
    locked: 0
  - name: Default
    uniqueID: 0
    locked: 0
  - name: Character
    uniqueID: 1768320645
    locked: 0
  - name: Foreground
    uniqueID: 119298117
    locked: 0
  - name: Minimap
    uniqueID: 3772695395
    locked: 0
